…
``` r
skills <- c("sas","python","sql","r","spss",
            "hadoop","spark","java","scala","aws","c++",
            "excel","powerpoint","mapreduce",
          "qlik","tableau","microstrategy","azure")

data %>%
     unnest_tokens(token="words",output="tokens",input=text) %>%
     filter(tokens %in% skills) %>%
     pairwise_count(tokens,urls,sort=TRUE)
```

    ## # A tibble: 264 × 3
    ##         item1      item2     n
    ##         <chr>      <chr> <dbl>
    ## 1      python          r    84
    ## 2           r     python    84
    ## 3      python        sql    73
    ## 4         sql     python    73
    ## 5       excel powerpoint    68
    ## 6  powerpoint      excel    68
    ## 7           r        sql    65
    ## 8         sql          r    65
    ## 9       excel        sql    62
    ## 10        sql      excel    62
    ## # ... with 254 more rows
…
